…
<img src="man/figures/README-unnamed-chunk-8-49.png" width="100%" />

    #> [1] "Tick 50 finished in 0.629 secs:"
    #> [1] "  - share_unhappy: 0.05"

<img src="man/figures/README-unnamed-chunk-8-50.png" width="100%" />

When it’s done, *tidyABM* provides us with statistics about each
iteration. Oh, and since it’s a tidy package, of course these statistics
come in the form of [tibbles](https://tibble.tidyverse.org/).

``` r
e
#> # A tibble: 50 × 5
#>    .tick .runtime       .n_agents_after_tick .finished_after_tick share_unhappy
#>  * <dbl> <drtn>                        <int> <lgl>                        <dbl>
#>  1     1 1.1524601 secs                   20 FALSE                         0.5 
#>  2     2 1.0272942 secs                   20 FALSE                         0.4 
#>  3     3 1.0281479 secs                   20 FALSE                         0.4 
#>  4     4 0.8632681 secs                   20 FALSE                         0.3 
#>  5     5 0.8177559 secs                   20 FALSE                         0.25
#>  6     6 0.8710709 secs                   20 FALSE                         0.25
#>  7     7 0.9274011 secs                   20 FALSE                         0.25
#>  8     8 0.6630981 secs                   20 FALSE                         0.15
#>  9     9 0.6973209 secs                   20 FALSE                         0.15
#> 10    10 0.7039340 secs                   20 FALSE                         0.15
#> # ℹ 40 more rows
```
…
