Take off and iterate — iterate • tidyabm
…
#> [1] "Tick 37 finished in 0.002 secs"
#> [1] "Tick 38 finished in 0.002 secs"
#> [1] "Tick 39 finished in 0.002 secs"
#> [1] "Tick 40 finished in 0.002 secs"
#> [1] "Tick 41 finished in 0.002 secs"
#> [1] "Tick 42 finished in 0.002 secs"
#> [1] "Tick 43 finished in 0.002 secs"
#> [1] "Tick 44 finished in 0.002 secs"
#> [1] "Tick 45 finished in 0.002 secs"
#> [1] "Tick 46 finished in 0.002 secs"
#> [1] "Tick 47 finished in 0.002 secs"
#> [1] "Tick 48 finished in 0.002 secs"
#> [1] "Tick 49 finished in 0.002 secs"
#> [1] "Tick 50 finished in 0.002 secs"
#> # A tibble: 50 × 4
#>    .tick .runtime         .n_agents_after_tick .finished_after_tick
#>  * <dbl> <drtn>                          <int> <lgl>               
#>  1     1 0.002064228 secs                    2 FALSE               
#>  2     2 0.002406836 secs                    2 FALSE               
#>  3     3 0.002350092 secs                    2 FALSE               
#>  4     4 0.002351046 secs                    2 FALSE               
#>  5     5 0.002352953 secs                    2 FALSE               
#>  6     6 0.002334595 secs                    2 FALSE               
#>  7     7 0.002359867 secs                    2 FALSE               
#>  8     8 0.002383232 secs                    2 FALSE               
#>  9     9 0.002319336 secs                    2 FALSE               
#> 10    10 0.002395391 secs                    2 FALSE               
#> # ℹ 40 more rows
#> # ABM grid environment
…
