Deffuant et al.'s Bounded Confidence Model of Opinion Dynamics • tidyabm
…
e %>% 
  convert_agents_to_tibble()
#> # A tibble: 100 × 4
#>    .id   .indegree .outdegree opinion
#>    <chr> <list>    <list>       <dbl>
#>  1 A1    <NULL>    <NULL>      0.143 
#>  2 A2    <NULL>    <NULL>      0.0546
#>  3 A3    <NULL>    <NULL>      0.0523
#>  4 A4    <NULL>    <NULL>      0.141 
#>  5 A5    <NULL>    <NULL>      0.142 
#>  6 A6    <NULL>    <NULL>      0.0697
#>  7 A7    <NULL>    <NULL>      0.0460
#>  8 A8    <NULL>    <NULL>      0.0145
#>  9 A9    <NULL>    <NULL>      0.0835
#> 10 A10   <NULL>    <NULL>      0.0957
#> # ℹ 90 more rows
…
# this is our collected variable/tibble
agent_opinions_over_time
#> # A tibble: 2,000 × 3
#>    agent  tick opinion
#>    <chr> <int>   <dbl>
#>  1 A1        1  0.224 
#>  2 A2        1  1.18  
#>  3 A3        1  0.682 
#>  4 A4        1  0.435 
#>  5 A5        1 -0.0864
#>  6 A6        1  0.690 
#>  7 A7        1 -0.440 
#>  8 A8        1 -1.37  
#>  9 A9        1 -0.189 
#> 10 A10       1  0.692 
#> # ℹ 1,990 more rows
…
