Rogers' Diffusion • tidyabm
…
e %>% 
  convert_agents_to_tibble()
#> # A tibble: 100 × 5
#>    .id   informed connected .indegree  .outdegree
#>    <chr> <lgl>    <lgl>     <list>     <list>    
#>  1 A1    TRUE     TRUE      <chr [8]>  <chr [10]>
#>  2 A2    TRUE     TRUE      <chr [13]> <chr [10]>
#>  3 A3    TRUE     TRUE      <chr [10]> <chr [10]>
#>  4 A4    TRUE     TRUE      <chr [9]>  <chr [10]>
#>  5 A5    TRUE     TRUE      <chr [7]>  <chr [9]> 
#>  6 A6    TRUE     TRUE      <chr [5]>  <chr [10]>
#>  7 A7    TRUE     TRUE      <chr [7]>  <chr [10]>
#>  8 A8    TRUE     TRUE      <chr [10]> <chr [9]> 
#>  9 A9    TRUE     TRUE      <chr [11]> <chr [10]>
#> 10 A10   TRUE     TRUE      <chr [15]> <chr [10]>
#> # ℹ 90 more rows
…
