Schelling's Segregation • tidyabm
…
e %>% 
  convert_agents_to_tibble()
#> # A tibble: 280 × 6
#>    .id   color    .x    .y similar unhappy
#>    <chr> <chr> <int> <int>   <dbl> <lgl>  
#>  1 A1    red       7    17   0.571 FALSE  
#>  2 A2    red      17    13   0.25  FALSE  
#>  3 A3    red       7    16   0.833 FALSE  
#>  4 A4    red       6    19   0.286 FALSE  
#>  5 A5    red      20     6   0.4   FALSE  
#>  6 A6    red      14     9   0.333 FALSE  
#>  7 A7    red       8    15   0.4   FALSE  
#>  8 A8    red      19    16   0.5   FALSE  
#>  9 A9    red      16    18   0.8   FALSE  
#> 10 A10   red      13    16   0.4   FALSE  
#> # ℹ 270 more rows
…
